simulation/qsim/exp6.msim.vcd
$comment
	File created using the following command:
		vcd file exp6.msim.vcd -direction
$end
$date
	Sun May 14 17:58:15 2023
$end
$version
	ModelSim Version 10.1d
$end
$timescale
	1ps
$end
$scope module exp6_vlg_vec_tst $end
$var reg 1 ! cin $end
$var reg 1 " clk $end
$var reg 5 # cr [4:0] $end
$var reg 1 $ flag $end
$var reg 8 % keyout [7:0] $end
$var reg 2 & M [1:0] $end
$var reg 1 ' pc_clr $end
$var reg 2 ( RA [1:0] $end
$var reg 1 ) rd $end
$var reg 3 * S [2:0] $end
$var reg 3 + switch_buttons [2:0] $end
$var reg 1 , wr $end
$var wire 1 - exceed $end
$var wire 1 . PC [7] $end
$var wire 1 / PC [6] $end
$var wire 1 0 PC [5] $end
$var wire 1 1 PC [4] $end
$var wire 1 2 PC [3] $end
$var wire 1 3 PC [2] $end
$var wire 1 4 PC [1] $end
$var wire 1 5 PC [0] $end
$var wire 1 6 R0 [7] $end
$var wire 1 7 R0 [6] $end
$var wire 1 8 R0 [5] $end
$var wire 1 9 R0 [4] $end
$var wire 1 : R0 [3] $end
$var wire 1 ; R0 [2] $end
$var wire 1 < R0 [1] $end
$var wire 1 = R0 [0] $end
$var wire 1 > R1 [7] $end
$var wire 1 ? R1 [6] $end
$var wire 1 @ R1 [5] $end
$var wire 1 A R1 [4] $end
$var wire 1 B R1 [3] $end
$var wire 1 C R1 [2] $end
$var wire 1 D R1 [1] $end
$var wire 1 E R1 [0] $end
$var wire 1 F R2 [7] $end
$var wire 1 G R2 [6] $end
$var wire 1 H R2 [5] $end
$var wire 1 I R2 [4] $end
$var wire 1 J R2 [3] $end
$var wire 1 K R2 [2] $end
$var wire 1 L R2 [1] $end
$var wire 1 M R2 [0] $end
$var wire 1 N R3 [7] $end
$var wire 1 O R3 [6] $end
$var wire 1 P R3 [5] $end
$var wire 1 Q R3 [4] $end
$var wire 1 R R3 [3] $end
$var wire 1 S R3 [2] $end
$var wire 1 T R3 [1] $end
$var wire 1 U R3 [0] $end
$var wire 1 V res_alu [7] $end
$var wire 1 W res_alu [6] $end
$var wire 1 X res_alu [5] $end
$var wire 1 Y res_alu [4] $end
$var wire 1 Z res_alu [3] $end
$var wire 1 [ res_alu [2] $end
$var wire 1 \ res_alu [1] $end
$var wire 1 ] res_alu [0] $end
$var wire 1 ^ sampler $end
$scope module i1 $end
$var wire 1 _ gnd $end
$var wire 1 ` vcc $end
$var wire 1 a unknown $end
$var tri1 1 b devclrn $end
$var tri1 1 c devpor $end
$var tri1 1 d devoe $end
$var wire 1 e switch_buttons[2]~input_o $end
$var wire 1 f switch_buttons[1]~input_o $end
$var wire 1 g switch_buttons[0]~input_o $end
$var wire 1 h exceed~output_o $end
$var wire 1 i PC[7]~output_o $end
$var wire 1 j PC[6]~output_o $end
$var wire 1 k PC[5]~output_o $end
$var wire 1 l PC[4]~output_o $end
$var wire 1 m PC[3]~output_o $end
$var wire 1 n PC[2]~output_o $end
$var wire 1 o PC[1]~output_o $end
$var wire 1 p PC[0]~output_o $end
$var wire 1 q res_alu[7]~output_o $end
$var wire 1 r res_alu[6]~output_o $end
$var wire 1 s res_alu[5]~output_o $end
$var wire 1 t res_alu[4]~output_o $end
$var wire 1 u res_alu[3]~output_o $end
$var wire 1 v res_alu[2]~output_o $end
$var wire 1 w res_alu[1]~output_o $end
$var wire 1 x res_alu[0]~output_o $end
$var wire 1 y R0[7]~output_o $end
$var wire 1 z R0[6]~output_o $end
$var wire 1 { R0[5]~output_o $end
$var wire 1 | R0[4]~output_o $end
$var wire 1 } R0[3]~output_o $end
$var wire 1 ~ R0[2]~output_o $end
$var wire 1 !! R0[1]~output_o $end
$var wire 1 "! R0[0]~output_o $end
$var wire 1 #! R1[7]~output_o $end
$var wire 1 $! R1[6]~output_o $end
$var wire 1 %! R1[5]~output_o $end
$var wire 1 &! R1[4]~output_o $end
$var wire 1 '! R1[3]~output_o $end
$var wire 1 (! R1[2]~output_o $end
$var wire 1 )! R1[1]~output_o $end
$var wire 1 *! R1[0]~output_o $end
$var wire 1 +! R2[7]~output_o $end
$var wire 1 ,! R2[6]~output_o $end
$var wire 1 -! R2[5]~output_o $end
$var wire 1 .! R2[4]~output_o $end
$var wire 1 /! R2[3]~output_o $end
$var wire 1 0! R2[2]~output_o $end
$var wire 1 1! R2[1]~output_o $end
$var wire 1 2! R2[0]~output_o $end
$var wire 1 3! R3[7]~output_o $end
$var wire 1 4! R3[6]~output_o $end
$var wire 1 5! R3[5]~output_o $end
$var wire 1 6! R3[4]~output_o $end
$var wire 1 7! R3[3]~output_o $end
$var wire 1 8! R3[2]~output_o $end
$var wire 1 9! R3[1]~output_o $end
$var wire 1 :! R3[0]~output_o $end
$var wire 1 ;! clk~input_o $end
$var wire 1 <! clk~inputclkctrl_outclk $end
$var wire 1 =! S[0]~input_o $end
$var wire 1 >! S[1]~input_o $end
$var wire 1 ?! S[2]~input_o $end
$var wire 1 @! cr[1]~input_o $end
$var wire 1 A! cr[2]~input_o $end
$var wire 1 B! cr[0]~input_o $end
$var wire 1 C! inst18|opt2[7]~0_combout $end
$var wire 1 D! M[0]~input_o $end
$var wire 1 E! inst21|pf|PC[0]~8_combout $end
$var wire 1 F! keyout[0]~input_o $end
$var wire 1 G! inst18|opt2[7]~1_combout $end
$var wire 1 H! rd~input_o $end
$var wire 1 I! wr~input_o $end
$var wire 1 J! inst21|rf|R0~7_combout $end
$var wire 1 K! RA[1]~input_o $end
$var wire 1 L! RA[0]~input_o $end
$var wire 1 M! inst21|rf|Decoder0~0_combout $end
$var wire 1 N! inst21|rf|Decoder0~2_combout $end
$var wire 1 O! inst21|rf|Decoder0~1_combout $end
$var wire 1 P! inst18|Selector7~0_combout $end
$var wire 1 Q! inst18|Selector7~1_combout $end
$var wire 1 R! inst18|opt2[0]~feeder_combout $end
$var wire 1 S! inst21|rf|R3[0]~feeder_combout $end
$var wire 1 T! inst21|rf|Decoder0~3_combout $end
$var wire 1 U! cr[3]~input_o $end
$var wire 1 V! flag~input_o $end
$var wire 1 W! cr[4]~input_o $end
$var wire 1 X! inst18|opt2[7]~3_combout $end
$var wire 1 Y! inst18|opt2[7]~2_combout $end
$var wire 1 Z! inst18|opt2[7]~4_combout $end
$var wire 1 [! inst18|opt2[7]~5_combout $end
$var wire 1 \! inst18|opt1[0]~feeder_combout $end
$var wire 1 ]! inst18|opt1[7]~0_combout $end
$var wire 1 ^! inst22|man|Mux7~0_combout $end
$var wire 1 _! keyout[1]~input_o $end
$var wire 1 `! inst18|opt2[1]~feeder_combout $end
$var wire 1 a! inst22|man|ans~27_combout $end
$var wire 1 b! inst22|man|ans~26_combout $end
$var wire 1 c! inst22|man|ans[1]~5_combout $end
$var wire 1 d! inst22|man|ans~28_combout $end
$var wire 1 e! inst22|man|ans[6]~13_combout $end
$var wire 1 f! keyout[2]~input_o $end
$var wire 1 g! inst18|opt2[2]~feeder_combout $end
$var wire 1 h! inst22|man|ans~24_combout $end
$var wire 1 i! inst22|man|ans~23_combout $end
$var wire 1 j! inst22|man|ans[2]~4_combout $end
$var wire 1 k! keyout[3]~input_o $end
$var wire 1 l! inst18|opt2[3]~feeder_combout $end
$var wire 1 m! inst22|man|ans~21_combout $end
$var wire 1 n! inst22|man|ans~20_combout $end
$var wire 1 o! inst22|man|ans[3]~3_combout $end
$var wire 1 p! keyout[4]~input_o $end
$var wire 1 q! inst18|opt2[4]~feeder_combout $end
$var wire 1 r! inst22|man|ans~18_combout $end
$var wire 1 s! inst22|man|ans~17_combout $end
$var wire 1 t! inst22|man|ans[4]~2_combout $end
$var wire 1 u! inst22|man|ans[6]~11_combout $end
$var wire 1 v! keyout[5]~input_o $end
$var wire 1 w! inst18|opt2[5]~feeder_combout $end
$var wire 1 x! inst22|man|ans~16_combout $end
$var wire 1 y! inst22|man|ans~15_combout $end
$var wire 1 z! inst22|man|ans[5]~1_combout $end
$var wire 1 {! keyout[6]~input_o $end
$var wire 1 |! inst18|opt2[6]~feeder_combout $end
$var wire 1 }! inst22|man|ans~9_combout $end
$var wire 1 ~! inst22|man|ans~10_combout $end
$var wire 1 !" inst22|man|ans[6]~0_combout $end
$var wire 1 "" inst22|man|ans~12_combout $end
$var wire 1 #" cin~input_o $end
$var wire 1 $" inst22|man|Add0~1_cout $end
$var wire 1 %" inst22|man|Add0~3 $end
$var wire 1 &" inst22|man|Add0~5 $end
$var wire 1 '" inst22|man|Add0~7 $end
$var wire 1 (" inst22|man|Add0~9 $end
$var wire 1 )" inst22|man|Add0~11 $end
$var wire 1 *" inst22|man|Add0~13 $end
$var wire 1 +" inst22|man|Add0~14_combout $end
$var wire 1 ," inst22|man|Mux1~0_combout $end
$var wire 1 -" inst22|man|Mux1~1_combout $end
$var wire 1 ." inst22|man|ans[6]~14_combout $end
$var wire 1 /" inst22|man|ans[6]~8_combout $end
$var wire 1 0" inst21|rf|R0~1_combout $end
$var wire 1 1" inst21|rf|R1[6]~feeder_combout $end
$var wire 1 2" inst18|Selector1~0_combout $end
$var wire 1 3" inst18|Selector1~1_combout $end
$var wire 1 4" inst18|opt1[6]~feeder_combout $end
$var wire 1 5" inst22|man|Mux2~0_combout $end
$var wire 1 6" inst22|man|Mux2~1_combout $end
$var wire 1 7" inst22|man|Add0~12_combout $end
$var wire 1 8" inst22|man|Mux2~2_combout $end
$var wire 1 9" inst21|rf|R0~2_combout $end
$var wire 1 :" inst21|rf|R0[5]~feeder_combout $end
$var wire 1 ;" inst18|Selector2~0_combout $end
$var wire 1 <" inst18|Selector2~1_combout $end
$var wire 1 =" inst18|opt1[5]~feeder_combout $end
$var wire 1 >" inst22|man|ans~19_combout $end
$var wire 1 ?" inst22|man|Add0~10_combout $end
$var wire 1 @" inst22|man|Mux3~0_combout $end
$var wire 1 A" inst22|man|Mux3~1_combout $end
$var wire 1 B" inst21|rf|R0~3_combout $end
$var wire 1 C" inst21|rf|R1[4]~feeder_combout $end
$var wire 1 D" inst18|Selector3~0_combout $end
$var wire 1 E" inst18|Selector3~1_combout $end
$var wire 1 F" inst18|opt1[4]~feeder_combout $end
$var wire 1 G" inst22|man|ans~22_combout $end
$var wire 1 H" inst22|man|Add0~8_combout $end
$var wire 1 I" inst22|man|Mux4~0_combout $end
$var wire 1 J" inst22|man|Mux4~1_combout $end
$var wire 1 K" inst21|rf|R0~4_combout $end
$var wire 1 L" inst21|rf|R0[3]~feeder_combout $end
$var wire 1 M" inst18|Selector4~0_combout $end
$var wire 1 N" inst18|Selector4~1_combout $end
$var wire 1 O" inst18|opt1[3]~feeder_combout $end
$var wire 1 P" inst22|man|ans~25_combout $end
$var wire 1 Q" inst22|man|Add0~6_combout $end
$var wire 1 R" inst22|man|Mux5~0_combout $end
$var wire 1 S" inst22|man|Mux5~1_combout $end
$var wire 1 T" inst21|rf|R0~5_combout $end
$var wire 1 U" inst21|rf|R1[2]~feeder_combout $end
$var wire 1 V" inst18|Selector5~0_combout $end
$var wire 1 W" inst18|Selector5~1_combout $end
$var wire 1 X" inst18|opt1[2]~feeder_combout $end
$var wire 1 Y" inst22|man|Add0~4_combout $end
$var wire 1 Z" inst22|man|Mux6~0_combout $end
$var wire 1 [" inst22|man|Mux6~1_combout $end
$var wire 1 \" inst21|rf|R0~6_combout $end
$var wire 1 ]" inst21|rf|R0[1]~feeder_combout $end
$var wire 1 ^" inst18|Selector6~0_combout $end
$var wire 1 _" inst18|Selector6~1_combout $end
$var wire 1 `" inst18|opt1[1]~feeder_combout $end
$var wire 1 a" inst22|man|Mux7~1_combout $end
$var wire 1 b" inst22|man|exceed~0_combout $end
$var wire 1 c" inst22|man|Add0~2_combout $end
$var wire 1 d" inst22|man|Mux7~2_combout $end
$var wire 1 e" inst21|pf|Mux7~0_combout $end
$var wire 1 f" pc_clr~input_o $end
$var wire 1 g" M[1]~input_o $end
$var wire 1 h" inst21|pf|PC[0]~9 $end
$var wire 1 i" inst21|pf|PC[1]~10_combout $end
$var wire 1 j" inst21|pf|Mux6~0_combout $end
$var wire 1 k" inst21|pf|PC[1]~11 $end
$var wire 1 l" inst21|pf|PC[2]~12_combout $end
$var wire 1 m" inst21|pf|Mux5~0_combout $end
$var wire 1 n" inst21|pf|PC[2]~13 $end
$var wire 1 o" inst21|pf|PC[3]~14_combout $end
$var wire 1 p" inst21|pf|Mux4~0_combout $end
$var wire 1 q" inst21|pf|PC[3]~15 $end
$var wire 1 r" inst21|pf|PC[4]~16_combout $end
$var wire 1 s" inst21|pf|Mux3~0_combout $end
$var wire 1 t" inst21|pf|PC[4]~17 $end
$var wire 1 u" inst21|pf|PC[5]~18_combout $end
$var wire 1 v" inst21|pf|Mux2~0_combout $end
$var wire 1 w" inst21|pf|PC[5]~19 $end
$var wire 1 x" inst21|pf|PC[6]~20_combout $end
$var wire 1 y" inst21|pf|Mux1~0_combout $end
$var wire 1 z" inst21|pf|PC[6]~21 $end
$var wire 1 {" inst21|pf|PC[7]~22_combout $end
$var wire 1 |" keyout[7]~input_o $end
$var wire 1 }" inst18|opt2[7]~feeder_combout $end
$var wire 1 ~" inst21|rf|R0~0_combout $end
$var wire 1 !# inst22|man|Mux0~2_combout $end
$var wire 1 "# inst22|man|Mux0~3_combout $end
$var wire 1 ## inst22|man|Add0~15 $end
$var wire 1 $# inst22|man|Add0~16_combout $end
$var wire 1 %# inst22|man|Mux0~5_combout $end
$var wire 1 &# inst22|man|Mux0~6_combout $end
$var wire 1 '# inst22|man|Mux0~4_combout $end
$var wire 1 (# inst21|pf|Mux0~0_combout $end
$var wire 1 )# inst21|rf|R0[7]~feeder_combout $end
$var wire 1 *# inst18|Selector8~0_combout $end
$var wire 1 +# inst18|Selector8~1_combout $end
$var wire 1 ,# inst18|opt1[7]~feeder_combout $end
$var wire 1 -# inst22|man|Add0~17 $end
$var wire 1 .# inst22|man|Add0~18_combout $end
$var wire 1 /# inst22|man|ans~29_combout $end
$var wire 1 0# inst22|man|exceed~1_combout $end
$var wire 1 1# inst22|man|exceed~q $end
$var wire 1 2# inst22|man|ans [15] $end
$var wire 1 3# inst22|man|ans [14] $end
$var wire 1 4# inst22|man|ans [13] $end
$var wire 1 5# inst22|man|ans [12] $end
$var wire 1 6# inst22|man|ans [11] $end
$var wire 1 7# inst22|man|ans [10] $end
$var wire 1 8# inst22|man|ans [9] $end
$var wire 1 9# inst22|man|ans [8] $end
$var wire 1 :# inst22|man|ans [7] $end
$var wire 1 ;# inst22|man|ans [6] $end
$var wire 1 <# inst22|man|ans [5] $end
$var wire 1 =# inst22|man|ans [4] $end
$var wire 1 ># inst22|man|ans [3] $end
$var wire 1 ?# inst22|man|ans [2] $end
$var wire 1 @# inst22|man|ans [1] $end
$var wire 1 A# inst22|man|ans [0] $end
$var wire 1 B# inst21|rf|R0 [7] $end
$var wire 1 C# inst21|rf|R0 [6] $end
$var wire 1 D# inst21|rf|R0 [5] $end
$var wire 1 E# inst21|rf|R0 [4] $end
$var wire 1 F# inst21|rf|R0 [3] $end
$var wire 1 G# inst21|rf|R0 [2] $end
$var wire 1 H# inst21|rf|R0 [1] $end
$var wire 1 I# inst21|rf|R0 [0] $end
$var wire 1 J# inst18|opt2 [7] $end
$var wire 1 K# inst18|opt2 [6] $end
$var wire 1 L# inst18|opt2 [5] $end
$var wire 1 M# inst18|opt2 [4] $end
$var wire 1 N# inst18|opt2 [3] $end
$var wire 1 O# inst18|opt2 [2] $end
$var wire 1 P# inst18|opt2 [1] $end
$var wire 1 Q# inst18|opt2 [0] $end
$var wire 1 R# inst18|opt1 [7] $end
$var wire 1 S# inst18|opt1 [6] $end
$var wire 1 T# inst18|opt1 [5] $end
$var wire 1 U# inst18|opt1 [4] $end
$var wire 1 V# inst18|opt1 [3] $end
$var wire 1 W# inst18|opt1 [2] $end
$var wire 1 X# inst18|opt1 [1] $end
$var wire 1 Y# inst18|opt1 [0] $end
$var wire 1 Z# inst21|rf|R3 [7] $end
$var wire 1 [# inst21|rf|R3 [6] $end
$var wire 1 \# inst21|rf|R3 [5] $end
$var wire 1 ]# inst21|rf|R3 [4] $end
$var wire 1 ^# inst21|rf|R3 [3] $end
$var wire 1 _# inst21|rf|R3 [2] $end
$var wire 1 `# inst21|rf|R3 [1] $end
$var wire 1 a# inst21|rf|R3 [0] $end
$var wire 1 b# inst21|rf|R1 [7] $end
$var wire 1 c# inst21|rf|R1 [6] $end
$var wire 1 d# inst21|rf|R1 [5] $end
$var wire 1 e# inst21|rf|R1 [4] $end
$var wire 1 f# inst21|rf|R1 [3] $end
$var wire 1 g# inst21|rf|R1 [2] $end
$var wire 1 h# inst21|rf|R1 [1] $end
$var wire 1 i# inst21|rf|R1 [0] $end
$var wire 1 j# inst21|rf|R2 [7] $end
$var wire 1 k# inst21|rf|R2 [6] $end
$var wire 1 l# inst21|rf|R2 [5] $end
$var wire 1 m# inst21|rf|R2 [4] $end
$var wire 1 n# inst21|rf|R2 [3] $end
$var wire 1 o# inst21|rf|R2 [2] $end
$var wire 1 p# inst21|rf|R2 [1] $end
$var wire 1 q# inst21|rf|R2 [0] $end
$var wire 1 r# inst21|pf|PC [7] $end
$var wire 1 s# inst21|pf|PC [6] $end
$var wire 1 t# inst21|pf|PC [5] $end
$var wire 1 u# inst21|pf|PC [4] $end
$var wire 1 v# inst21|pf|PC [3] $end
$var wire 1 w# inst21|pf|PC [2] $end
$var wire 1 x# inst21|pf|PC [1] $end
$var wire 1 y# inst21|pf|PC [0] $end
$var wire 1 z# inst22|mw|X [7] $end
$var wire 1 {# inst22|mw|X [6] $end
$var wire 1 |# inst22|mw|X [5] $end
$var wire 1 }# inst22|mw|X [4] $end
$var wire 1 ~# inst22|mw|X [3] $end
$var wire 1 !$ inst22|mw|X [2] $end
$var wire 1 "$ inst22|mw|X [1] $end
$var wire 1 #$ inst22|mw|X [0] $end
$var wire 1 $$ inst22|mw|Y [7] $end
$var wire 1 %$ inst22|mw|Y [6] $end
$var wire 1 &$ inst22|mw|Y [5] $end
$var wire 1 '$ inst22|mw|Y [4] $end
$var wire 1 ($ inst22|mw|Y [3] $end
$var wire 1 )$ inst22|mw|Y [2] $end
$var wire 1 *$ inst22|mw|Y [1] $end
$var wire 1 +$ inst22|mw|Y [0] $end
$upscope $end
$upscope $end
$enddefinitions $end
#0
$dumpvars
0!
0"
b11111 #
0$
b11110110 %
b0 &
1'
b0 (
1)
b0 *
b111 +
0,
0-
05
04
03
02
01
00
0/
0.
0=
0<
0;
0:
09
08
07
06
0E
0D
0C
0B
0A
0@
0?
0>
0M
0L
0K
0J
0I
0H
0G
0F
0U
0T
0S
0R
0Q
0P
0O
0N
0]
0\
0[
0Z
0Y
0X
0W
0V
x^
0_
1`
xa
1b
1c
1d
1e
1f
1g
0h
0i
0j
0k
0l
0m
0n
0o
0p
0q
0r
0s
0t
0u
0v
0w
0x
0y
0z
0{
0|
0}
0~
0!!
0"!
0#!
0$!
0%!
0&!
0'!
0(!
0)!
0*!
0+!
0,!
0-!
0.!
0/!
00!
01!
02!
03!
04!
05!
06!
07!
08!
09!
0:!
0;!
0<!
0=!
0>!
0?!
1@!
1A!
1B!
1C!
0D!
1E!
0F!
1G!
1H!
0I!
0J!
0K!
0L!
1M!
0N!
0O!
1P!
0Q!
0R!
0S!
0T!
1U!
0V!
1W!
1X!
0Y!
1Z!
0[!
0\!
0]!
0^!
1_!
0`!
0a!
0b!
0c!
0d!
1e!
1f!
0g!
0h!
0i!
0j!
0k!
0l!
0m!
0n!
0o!
1p!
0q!
0r!
0s!
0t!
0u!
1v!
0w!
0x!
0y!
0z!
1{!
0|!
0}!
0~!
0!"
0""
0#"
0$"
1%"
0&"
1'"
0("
1)"
0*"
0+"
0,"
0-"
1."
1/"
10"
11"
12"
03"
04"
05"
06"
07"
08"
19"
1:"
1;"
0<"
0="
0>"
0?"
0@"
0A"
1B"
1C"
1D"
0E"
0F"
0G"
0H"
0I"
0J"
0K"
0L"
1M"
0N"
0O"
0P"
0Q"
0R"
0S"
1T"
1U"
1V"
0W"
0X"
0Y"
0Z"
0["
1\"
1]"
1^"
0_"
0`"
0a"
0b"
0c"
0d"
0e"
1f"
0g"
0h"
0i"
1j"
1k"
0l"
1m"
0n"
0o"
0p"
1q"
0r"
1s"
0t"
0u"
1v"
1w"
0x"
1y"
0z"
0{"
1|"
0}"
1~"
0!#
1"#
1##
0$#
0%#
0&#
0'#
1(#
1)#
1*#
0+#
0,#
0-#
0.#
0/#
00#
01#
0A#
0@#
0?#
0>#
0=#
0<#
0;#
0:#
09#
z8#
z7#
z6#
z5#
z4#
z3#
z2#
0I#
0H#
0G#
0F#
0E#
0D#
0C#
0B#
0Q#
0P#
0O#
0N#
0M#
0L#
0K#
0J#
0Y#
0X#
0W#
0V#
0U#
0T#
0S#
0R#
0a#
0`#
0_#
0^#
0]#
0\#
0[#
0Z#
0i#
0h#
0g#
0f#
0e#
0d#
0c#
0b#
0q#
0p#
0o#
0n#
0m#
0l#
0k#
0j#
0y#
0x#
0w#
0v#
0u#
0t#
0s#
0r#
0#$
0"$
0!$
0~#
0}#
0|#
0{#
0z#
0+$
0*$
0)$
0($
0'$
0&$
0%$
0$$
$end
#20000
1"
1;!
1<!
0^
#40000
b1 *
0"
1=!
0;!
0<!
1^
1&#
0"#
0."
1C#
1D#
1E#
1G#
1H#
1y#
1B#
1Q!
1h"
0E!
1z
1{
1|
1~
1!!
1p
1y
17
18
19
1;
1<
15
16
1\!
1R!
1i"
#60000
1"
1;!
1<!
0^
#80000
b1 (
b11 *
b10 *
0"
0=!
1>!
1L!
0;!
0<!
1^
0&#
1"#
0/"
1O!
0M!
0y#
1x#
0Q!
0h"
1E!
0k"
0i"
1_"
0p
1o
05
14
0\!
0R!
1k"
1i"
1l"
1`"
1`!
0l"
#100000
1"
1;!
1<!
0^
#120000
b11 *
0"
1=!
0;!
0<!
1^
1&#
0"#
1c#
1d#
1e#
1g#
1h#
1y#
1b#
1Q!
1h"
0E!
1$!
1%!
1&!
1(!
1)!
1p
1#!
1?
1@
1A
1C
1D
15
1>
1\!
1R!
0k"
0i"
1l"
#140000
1"
1;!
1<!
0^
#150000
b11 (
b10 (
0L!
1K!
1^
0O!
1N!
#160000
b111 *
b101 *
b100 *
0"
0=!
0>!
1?!
0;!
0<!
0^
0&#
1"#
1b"
1!#
1/"
0e!
1k#
1l#
1m#
1o#
1p#
0y#
0x#
1w#
1j#
0Q!
0h"
1E!
1k"
1i"
0_"
1n"
0l"
1W"
1,!
1-!
1.!
10!
11!
0p
0o
1n
1+!
1G
1H
1I
1K
1L
05
04
13
1F
0\!
0R!
0i"
0n"
1l"
0`"
0`!
1o"
1X"
1g!
0o"
#180000
1"
1;!
1<!
1^
#200000
b101 *
0"
1=!
0;!
0<!
0^
0b"
1u!
16"
1y#
1Q!
1h"
0E!
1p
15
1\!
1R!
1i"
#220000
b1 &
1"
1D!
1;!
1<!
1^
0(#
1{"
0y"
1x"
0v"
1u"
0s"
1r"
1o"
0m"
1n"
0l"
0j"
0k"
0i"
0q"
0o"
1l"
1t"
0r"
0w"
0u"
1z"
0x"
0{"
#240000
b111 *
b110 *
0"
0=!
1>!
0;!
0<!
0^
0!#
1e!
1Z"
1R"
1I"
1@"
18"
06"
1,"
08"
0y#
0Q!
0h"
1E!
0p
05
0\!
0R!
1k"
1i"
0l"
#250000
b11 (
1L!
1^
1T!
0N!
#260000
1"
1;!
1<!
0^
#280000
b111 *
0"
1=!
0;!
0<!
1^
1&#
0"#
1`#
1_#
1]#
1\#
1[#
1y#
1x#
0w#
1Z#
1Q!
1h"
0E!
0k"
0i"
1_"
0n"
1l"
0W"
19!
18!
16!
15!
14!
1p
1o
0n
13!
1T
1S
1Q
1P
1O
15
14
03
1N
1\!
1R!
1i"
1n"
0l"
1`"
1`!
1q"
1o"
0X"
0g!
0q"
0o"
0t"
1r"
1t"
0r"
1w"
1u"
0w"
0u"
0z"
1x"
1z"
0x"
1{"
0{"
#300000
1"
1;!
1<!
0^
#320000
b11 *
b1 *
b0 *
0"
0=!
0>!
0?!
0;!
0<!
1^
0&#
1"#
1."
0u!
0Z"
1S"
0R"
0I"
1A"
0@"
1-"
0,"
0S"
0A"
0-"
0y#
0Q!
0h"
1E!
0p
05
0\!
0R!
0i"
#330000
b0 &
0D!
0^
1(#
1{"
1y"
0z"
1x"
1v"
1w"
1u"
1s"
0t"
1r"
1q"
1o"
1m"
0n"
1l"
1j"
1k"
1i"
0{"
0x"
0u"
0r"
0o"
0l"
#340000
1"
1;!
1<!
1^
#350000
b1 (
b0 (
0L!
0K!
0^
0T!
1M!
#360000
b1 *
0"
1=!
0;!
0<!
1^
1&#
0"#
0."
1y#
1Q!
1h"
0E!
1p
15
1\!
1R!
0k"
0i"
1l"
#380000
b11110 #
1"
0B!
1;!
1<!
0^
0Z!
0C!
1]!
1+#
0V"
1N"
0M"
0D"
1<"
02"
0P!
1,#
1}"
1W"
1O"
1l!
0N"
1E"
1="
1w!
13"
0Q!
1X"
1g!
0O"
0l!
1F"
1q!
14"
1|!
0\!
0R!
#400000
b11 *
b10 *
0"
0=!
1>!
0;!
0<!
1^
0&#
1"#
0/"
0y#
0x#
1w#
0h"
1E!
1k"
1i"
1n"
0l"
0p
0o
1n
05
04
13
0i"
0n"
1l"
1o"
0o"
#420000
1"
1;!
1<!
0^
1R#
1X#
1W#
1U#
1T#
1S#
#440000
b11 *
0"
1=!
0;!
0<!
1^
1&#
0"#
1y#
1h"
0E!
1p
15
1i"
#460000
1"
1;!
1<!
0^
1z#
1"$
1!$
1}#
1|#
1{#
1%#
1$#
1!#
1Y"
1b!
1a!
1Q"
1i!
1h!
1?"
1s!
1r!
17"
1y!
1x!
1+"
1~!
1}!
1"#
1c!
1j!
1t!
1z!
1!"
1'#
#470000
b1110110 %
b110110 %
b10110 %
b110 %
b10 %
b0 %
0_!
0f!
0p!
0v!
0{!
0|"
1^
0j"
0\"
0m"
0T"
0s"
0B"
0v"
09"
0y"
00"
0(#
0~"
0]"
0U"
0C"
0:"
01"
0)#
#480000
b111 *
b101 *
b100 *
0"
0=!
0>!
1?!
0;!
0<!
0^
0&#
1b"
1/"
0e!
1Z"
1R"
1@"
18"
1,"
1["
1S"
1A"
1-"
0C#
0D#
0E#
0G#
0H#
0y#
1x#
0B#
03"
0;"
0E"
0W"
0^"
0h"
1E!
0k"
0i"
0*#
0z
0{
0|
0~
0!!
0p
1o
0y
07
08
09
0;
0<
05
14
06
04"
0|!
0<"
0F"
0q!
0X"
0g!
0_"
1k"
1i"
1n"
0l"
0+#
0="
0w!
0`"
0`!
0n"
1l"
1o"
0,#
0}"
0o"
#490000
b1110 #
1$
b1111 #
1B!
0W!
1V!
1^
1Z!
1C!
1Y!
0X!
0]!
1[!
0[!
1+#
1*#
1_"
1^"
1V"
1M"
1D"
1<"
1;"
12"
1P!
0Z!
1,#
1}"
0+#
1`"
1`!
1W"
1="
1w!
0<"
1[!
0,#
0}"
1X"
1g!
0="
0w!
#500000
1"
1;!
1<!
0^
1O#
1P#
1:#
1@#
1?#
1=#
1<#
1;#
10#
1q
1w
1v
1t
1s
1r
1V
1\
1[
1Y
1X
1W
#520000
b101 *
0"
1=!
0;!
0<!
1^
1&#
0b"
1u!
00#
0Z"
0S"
0R"
1I"
0@"
16"
0,"
0["
1S"
1J"
0A"
1y#
1Q!
1h"
0E!
1p
15
1\!
1R!
0k"
0i"
1n"
0l"
1o"
#540000
1"
1;!
1<!
0^
1)$
1*$
1Q#
0@#
1>#
0=#
1P"
0'"
0Q"
0h!
1&"
0Y"
1d!
0a!
0w
1u
0t
0\
1Z
0Y
1H"
0j!
1Q"
0c!
#560000
b111 *
b110 *
0"
0=!
1>!
0;!
0<!
1^
0&#
1j!
1c!
1a"
1e!
0'#
1d"
1["
1Z"
1R"
1@"
1,"
0S"
1A"
0y#
0x#
0w#
1v#
0Q!
0h"
1E!
1k"
1i"
0_"
0n"
1l"
0W"
0q"
0o"
1N"
0p
0o
0n
1m
05
04
03
12
0\!
0R!
0i"
0l"
0`"
0`!
1q"
1o"
0X"
0g!
1r"
1O"
1l!
0r"
#580000
1"
1;!
1<!
0^
1N#
0O#
0P#
1+$
0Q#
0:#
1A#
1@#
0?#
1=#
1c"
1^!
0q
1x
1w
0v
1t
0V
1]
1\
0[
1Y
#600000
b111 *
0"
1=!
0;!
0<!
1^
1&#
0j!
0c!
1'#
1y#
1Q!
1h"
0E!
1p
15
1\!
1R!
1i"
#620000
1"
1;!
1<!
0^
1($
0)$
0*$
0+$
1Q#
1:#
1("
0H"
1n!
1m!
0P"
0Q"
1h!
0&"
1Y"
0d!
1a!
0c"
0^!
1q
1V
0)"
0?"
1o!
1j!
1'"
1Q"
1c!
1*"
07"
0("
1H"
0##
0+"
1)"
1?"
1-#
0$#
0*"
17"
1.#
1##
1+"
0-#
1$#
0.#
#630000
b11111 #
0$
1W!
0V!
1^
0Y!
1X!
1]!
0[!
1Z!
0]!
#640000
b11 *
b1 *
b0 *
0"
0=!
0>!
0?!
0;!
0<!
0^
0&#
1."
0u!
0!#
0a"
0'#
0Z"
1S"
0R"
0I"
0@"
06"
0,"
0d"
0["
0S"
0J"
0A"
08"
0-"
0y#
1x#
0Q!
0h"
1E!
0k"
0i"
1_"
0p
1o
05
14
0\!
0R!
1k"
1i"
1l"
1`"
1`!
0l"
#660000
1"
1;!
1<!
1^
1+$
0:#
0A#
0@#
0>#
0=#
0<#
0;#
1c"
0q
0x
0w
0u
0t
0s
0r
0V
0]
0\
0Z
0Y
0X
0W
#680000
b1 *
0"
1=!
0;!
0<!
0^
1&#
0"#
0."
1y#
1Q!
1h"
0E!
1p
15
1\!
1R!
0k"
0i"
1l"
